Programirajmo u R-u - old
…
# ispišite prosječno vrijeme kašnjenja u dolasku (ignorirajte retke sa NA)
# za zrakoplovne luke LAX, JFK i LGA u različitim danima u tjednu
# novi stupac nazovite 'MeanArrDelay'
# ispis poredajte po vremenu kašnjenja silazno

filter(hflights, Dest %in% c('LAX', 'JFK', 'LGA')) %>% group_by(DayOfWeek, Dest) %>% 
summarise(MeanArrDelay = round(mean(ArrDelay, na.rm = T) , 2)) %>%
ungroup() %>% arrange(desc(MeanArrDelay))

## # A tibble: 21 × 3
##    DayOfWeek  Dest MeanArrDelay
##        <int> <chr>        <dbl>
## 1          4   LGA        21.26
## 2          4   JFK        17.23
## 3          5   LGA        13.59
## 4          1   LGA        13.46
## 5          7   JFK        10.78
## 6          1   LAX        10.69
## 7          3   LGA        10.47
## 8          4   LAX        10.30
## 9          2   LGA         9.85
## 10         6   JFK         9.76
## # ... with 11 more rows
…
